{
  "statusCode": 200,
  "error": false,
  "response": {
    "fields": [
      {
        "type": "text",
        "label": "message",
        "placeholder": "New Note"
      },
      {
        "type": "checkbox",
        "label": "keep it private"
      }
    ],
    "actions": [
      {
        "type": "submit",
        "label": "Save"
      }
    ]
  }
}